C1	26.51	61.12	90.00	1uF	0603
C2	28.89	60.01	90.00	1uF	0603
C3	20.80	11.91	0.00	100nF	0402
C4	20.80	11.11	0.00	100nF	0402
C5	16.19	22.38	90.00	100nF	0603
C6	21.91	22.38	270.00	100nF	0603
IC1	19.05	22.86	90.00	SN74LVC1T45DCKR	SC70
J2	18.58	13.34	180.00	KMDMIX-NS3A-WS-BTR	HDMI-C
JA1	10.16	53.98	180.00	67800-5005	SATA7-VERT
JA2	10.16	43.82	180.00	67800-5005	SATA7-VERT
JA3	10.16	33.66	180.00	67800-5005	SATA7-VERT
JB1	46.36	64.14	180.00	67800-5005	SATA7-VERT
JB2	46.36	53.98	180.00	67800-5005	SATA7-VERT
JB3	46.36	43.82	180.00	67800-5005	SATA7-VERT
JB4	46.36	33.66	180.00	67800-5005	SATA7-VERT
JB5	46.36	23.50	180.00	67800-5005	SATA7-VERT
JB6	46.36	13.34	180.00	67800-5005	SATA7-VERT
JB7	46.36	3.18	180.00	67800-5005	SATA7-VERT
JC1	66.67	64.14	180.00	67800-5005	SATA7-VERT
JC2	66.67	53.98	180.00	67800-5005	SATA7-VERT
JC3	66.67	43.82	180.00	67800-5005	SATA7-VERT
JC4	66.67	33.66	180.00	67800-5005	SATA7-VERT
JC5	66.67	23.50	180.00	67800-5005	SATA7-VERT
JC6	66.67	13.34	180.00	67800-5005	SATA7-VERT
JC7	66.67	3.18	180.00	67800-5005	SATA7-VERT
LD1	20.16	60.64	135.00		0805_POL
LD2	21.75	62.23	135.00		0805_POL
LD3	23.34	63.82	135.00		0805_POL
Q1	22.23	50.01	0.00	PMBT3904,215	SOT23
Q2	25.88	50.01	0.00	PMBT3904,215	SOT23
R1	21.11	25.08	180.00	1K	0603
R10	16.51	26.99	0.00	NL	0603
R2	20.32	55.09	270.00	1K	0603
R3	21.91	55.09	270.00	1K	0603
R4	23.50	55.09	270.00	1K	0603
R5	22.70	45.40	270.00	10K	0603
R6	24.92	45.40	270.00	10K	0603
R7	20.64	17.78	90.00	100R	0603
R8	22.07	17.78	90.00	100R	0603
R9	16.51	25.56	180.00	50K	0603
