Copyright 1986-2018 Xilinx, Inc. All Rights Reserved.
---------------------------------------------------------------------------------------------------------------------------------------------------------------------------
| Tool Version : Vivado v.2018.3 (win64) Build 2405991 Thu Dec  6 23:38:27 MST 2018
| Date         : Sun Oct  6 22:04:49 2019
| Host         : DESKTOP-LKMDMIU running 64-bit major release  (build 9200)
| Command      : report_bus_skew -warn_on_violation -file Mblaze_wrapper_bus_skew_routed.rpt -pb Mblaze_wrapper_bus_skew_routed.pb -rpx Mblaze_wrapper_bus_skew_routed.rpx
| Design       : Mblaze_wrapper
| Device       : 7z100-ffg900
| Speed File   : -2  PRODUCTION 1.11 2014-09-11
---------------------------------------------------------------------------------------------------------------------------------------------------------------------------

Bus Skew Report

No bus skew constraints

