G04 EAGLE Gerber RS-274X export*
G75*
%MOMM*%
%FSLAX34Y34*%
%LPD*%
%IN*%
%IPPOS*%
%AMOC8*
5,1,8,0,0,1.08239X$1,22.5*%
G01*
%ADD10C,0.254000*%


D10*
X0Y323850D02*
X38100Y285750D01*
X101600Y285750D01*
X114300Y273050D01*
X114300Y50800D01*
X165100Y0D01*
X755650Y0D01*
X762000Y6350D01*
X762000Y679450D01*
X755650Y685800D01*
X247650Y685800D01*
X165100Y603250D01*
X38100Y603250D01*
X0Y565150D01*
X0Y323850D01*
X286004Y70669D02*
X285940Y70023D01*
X285814Y69386D01*
X285625Y68766D01*
X285377Y68166D01*
X285071Y67594D01*
X284711Y67054D01*
X284299Y66553D01*
X283840Y66094D01*
X283339Y65682D01*
X282799Y65322D01*
X282227Y65016D01*
X281628Y64768D01*
X281007Y64579D01*
X280370Y64453D01*
X279724Y64389D01*
X279076Y64389D01*
X278430Y64453D01*
X277793Y64579D01*
X277173Y64768D01*
X276573Y65016D01*
X276001Y65322D01*
X275461Y65682D01*
X274960Y66094D01*
X274501Y66553D01*
X274089Y67054D01*
X273729Y67594D01*
X273423Y68166D01*
X273175Y68766D01*
X272986Y69386D01*
X272860Y70023D01*
X272796Y70669D01*
X272796Y71317D01*
X272860Y71963D01*
X272986Y72600D01*
X273175Y73221D01*
X273423Y73820D01*
X273729Y74392D01*
X274089Y74932D01*
X274501Y75433D01*
X274960Y75892D01*
X275461Y76304D01*
X276001Y76664D01*
X276573Y76970D01*
X277173Y77218D01*
X277793Y77407D01*
X278430Y77533D01*
X279076Y77597D01*
X279724Y77597D01*
X280370Y77533D01*
X281007Y77407D01*
X281628Y77218D01*
X282227Y76970D01*
X282799Y76664D01*
X283339Y76304D01*
X283840Y75892D01*
X284299Y75433D01*
X284711Y74932D01*
X285071Y74392D01*
X285377Y73820D01*
X285625Y73221D01*
X285814Y72600D01*
X285940Y71963D01*
X286004Y71317D01*
X286004Y70669D01*
X316484Y614483D02*
X316420Y613837D01*
X316294Y613200D01*
X316105Y612580D01*
X315857Y611980D01*
X315551Y611408D01*
X315191Y610868D01*
X314779Y610367D01*
X314320Y609908D01*
X313819Y609496D01*
X313279Y609136D01*
X312707Y608830D01*
X312108Y608582D01*
X311487Y608393D01*
X310850Y608267D01*
X310204Y608203D01*
X309556Y608203D01*
X308910Y608267D01*
X308273Y608393D01*
X307653Y608582D01*
X307053Y608830D01*
X306481Y609136D01*
X305941Y609496D01*
X305440Y609908D01*
X304981Y610367D01*
X304569Y610868D01*
X304209Y611408D01*
X303903Y611980D01*
X303655Y612580D01*
X303466Y613200D01*
X303340Y613837D01*
X303276Y614483D01*
X303276Y615131D01*
X303340Y615777D01*
X303466Y616414D01*
X303655Y617035D01*
X303903Y617634D01*
X304209Y618206D01*
X304569Y618746D01*
X304981Y619247D01*
X305440Y619706D01*
X305941Y620118D01*
X306481Y620478D01*
X307053Y620784D01*
X307653Y621032D01*
X308273Y621221D01*
X308910Y621347D01*
X309556Y621411D01*
X310204Y621411D01*
X310850Y621347D01*
X311487Y621221D01*
X312108Y621032D01*
X312707Y620784D01*
X313279Y620478D01*
X313819Y620118D01*
X314320Y619706D01*
X314779Y619247D01*
X315191Y618746D01*
X315551Y618206D01*
X315857Y617634D01*
X316105Y617035D01*
X316294Y616414D01*
X316420Y615777D01*
X316484Y615131D01*
X316484Y614483D01*
X161300Y96131D02*
X161363Y96689D01*
X161488Y97236D01*
X161673Y97766D01*
X161917Y98272D01*
X162216Y98748D01*
X162566Y99187D01*
X162963Y99584D01*
X163402Y99934D01*
X163878Y100233D01*
X164384Y100477D01*
X164914Y100662D01*
X165461Y100787D01*
X166019Y100850D01*
X166581Y100850D01*
X167139Y100787D01*
X167686Y100662D01*
X168216Y100477D01*
X168722Y100233D01*
X169198Y99934D01*
X169637Y99584D01*
X170034Y99187D01*
X170384Y98748D01*
X170683Y98272D01*
X170927Y97766D01*
X171112Y97236D01*
X171237Y96689D01*
X171300Y96131D01*
X171300Y95569D01*
X171237Y95011D01*
X171112Y94464D01*
X170927Y93934D01*
X170683Y93428D01*
X170384Y92952D01*
X170034Y92513D01*
X169637Y92116D01*
X169198Y91766D01*
X168722Y91467D01*
X168216Y91223D01*
X167686Y91038D01*
X167139Y90913D01*
X166581Y90850D01*
X166019Y90850D01*
X165461Y90913D01*
X164914Y91038D01*
X164384Y91223D01*
X163878Y91467D01*
X163402Y91766D01*
X162963Y92116D01*
X162566Y92513D01*
X162216Y92952D01*
X161917Y93428D01*
X161673Y93934D01*
X161488Y94464D01*
X161363Y95011D01*
X161300Y95569D01*
X161300Y96131D01*
X161300Y171131D02*
X161363Y171689D01*
X161488Y172236D01*
X161673Y172766D01*
X161917Y173272D01*
X162216Y173748D01*
X162566Y174187D01*
X162963Y174584D01*
X163402Y174934D01*
X163878Y175233D01*
X164384Y175477D01*
X164914Y175662D01*
X165461Y175787D01*
X166019Y175850D01*
X166581Y175850D01*
X167139Y175787D01*
X167686Y175662D01*
X168216Y175477D01*
X168722Y175233D01*
X169198Y174934D01*
X169637Y174584D01*
X170034Y174187D01*
X170384Y173748D01*
X170683Y173272D01*
X170927Y172766D01*
X171112Y172236D01*
X171237Y171689D01*
X171300Y171131D01*
X171300Y170569D01*
X171237Y170011D01*
X171112Y169464D01*
X170927Y168934D01*
X170683Y168428D01*
X170384Y167952D01*
X170034Y167513D01*
X169637Y167116D01*
X169198Y166766D01*
X168722Y166467D01*
X168216Y166223D01*
X167686Y166038D01*
X167139Y165913D01*
X166581Y165850D01*
X166019Y165850D01*
X165461Y165913D01*
X164914Y166038D01*
X164384Y166223D01*
X163878Y166467D01*
X163402Y166766D01*
X162963Y167116D01*
X162566Y167513D01*
X162216Y167952D01*
X161917Y168428D01*
X161673Y168934D01*
X161488Y169464D01*
X161363Y170011D01*
X161300Y170569D01*
X161300Y171131D01*
M02*
