G04 EAGLE Gerber RS-274X export*
G75*
%MOMM*%
%FSLAX34Y34*%
%LPD*%
%INSolderpaste Bottom*%
%IPPOS*%
%AMOC8*
5,1,8,0,0,1.08239X$1,22.5*%
G01*
%ADD10C,0.890000*%


D10*
X247650Y590550D03*
X260350Y590550D03*
X298450Y590550D03*
X311150Y590550D03*
X247650Y577850D03*
X260350Y577850D03*
X298450Y577850D03*
X311150Y577850D03*
X247650Y565150D03*
X260350Y565150D03*
X298450Y565150D03*
X311150Y565150D03*
X247650Y552450D03*
X260350Y552450D03*
X298450Y552450D03*
X311150Y552450D03*
X247650Y539750D03*
X260350Y539750D03*
X298450Y539750D03*
X311150Y539750D03*
X247650Y527050D03*
X260350Y527050D03*
X298450Y527050D03*
X311150Y527050D03*
X247650Y514350D03*
X260350Y514350D03*
X298450Y514350D03*
X311150Y514350D03*
X247650Y501650D03*
X260350Y501650D03*
X298450Y501650D03*
X311150Y501650D03*
X247650Y488950D03*
X260350Y488950D03*
X298450Y488950D03*
X311150Y488950D03*
X247650Y476250D03*
X260350Y476250D03*
X298450Y476250D03*
X311150Y476250D03*
X247650Y463550D03*
X260350Y463550D03*
X298450Y463550D03*
X311150Y463550D03*
X247650Y450850D03*
X260350Y450850D03*
X298450Y450850D03*
X311150Y450850D03*
X247650Y438150D03*
X260350Y438150D03*
X298450Y438150D03*
X311150Y438150D03*
X247650Y425450D03*
X260350Y425450D03*
X298450Y425450D03*
X311150Y425450D03*
X247650Y412750D03*
X260350Y412750D03*
X298450Y412750D03*
X311150Y412750D03*
X247650Y400050D03*
X260350Y400050D03*
X298450Y400050D03*
X311150Y400050D03*
X247650Y387350D03*
X260350Y387350D03*
X298450Y387350D03*
X311150Y387350D03*
X247650Y374650D03*
X260350Y374650D03*
X298450Y374650D03*
X311150Y374650D03*
X247650Y361950D03*
X260350Y361950D03*
X298450Y361950D03*
X311150Y361950D03*
X247650Y349250D03*
X260350Y349250D03*
X298450Y349250D03*
X311150Y349250D03*
X247650Y336550D03*
X260350Y336550D03*
X298450Y336550D03*
X311150Y336550D03*
X247650Y323850D03*
X260350Y323850D03*
X298450Y323850D03*
X311150Y323850D03*
X247650Y311150D03*
X260350Y311150D03*
X298450Y311150D03*
X311150Y311150D03*
X247650Y298450D03*
X260350Y298450D03*
X298450Y298450D03*
X311150Y298450D03*
X247650Y285750D03*
X260350Y285750D03*
X298450Y285750D03*
X311150Y285750D03*
X247650Y273050D03*
X260350Y273050D03*
X298450Y273050D03*
X311150Y273050D03*
X247650Y260350D03*
X260350Y260350D03*
X298450Y260350D03*
X311150Y260350D03*
X247650Y247650D03*
X260350Y247650D03*
X298450Y247650D03*
X311150Y247650D03*
X247650Y234950D03*
X260350Y234950D03*
X298450Y234950D03*
X311150Y234950D03*
X247650Y222250D03*
X260350Y222250D03*
X298450Y222250D03*
X311150Y222250D03*
X247650Y209550D03*
X260350Y209550D03*
X298450Y209550D03*
X311150Y209550D03*
X247650Y196850D03*
X260350Y196850D03*
X298450Y196850D03*
X311150Y196850D03*
X247650Y184150D03*
X260350Y184150D03*
X298450Y184150D03*
X311150Y184150D03*
X247650Y171450D03*
X260350Y171450D03*
X298450Y171450D03*
X311150Y171450D03*
X247650Y158750D03*
X260350Y158750D03*
X298450Y158750D03*
X311150Y158750D03*
X247650Y146050D03*
X260350Y146050D03*
X298450Y146050D03*
X311150Y146050D03*
X247650Y133350D03*
X260350Y133350D03*
X298450Y133350D03*
X311150Y133350D03*
X247650Y120650D03*
X260350Y120650D03*
X298450Y120650D03*
X311150Y120650D03*
X247650Y107950D03*
X260350Y107950D03*
X298450Y107950D03*
X311150Y107950D03*
X247650Y95250D03*
X260350Y95250D03*
X298450Y95250D03*
X311150Y95250D03*
M02*
